{
  "status": "ok",
  "status_message": "Query was successful",
  "data": {
    "movie_count": 8239,
    "limit": 20,
    "page_number": 1,
    "movies": [
      {
        "id": 8605,
        "url": "https://yts.am/movie/upgrade-2018",
        "imdb_code": "tt6499752",
        "title": "Upgrade",
        "title_english": "Upgrade",
        "title_long": "Upgrade (2018)",
        "slug": "upgrade-2018",
        "year": 2018,
        "rating": 7.7,
        "runtime": 0,
        "genres": [
          "Action",
          "Horror",
          "Sci-Fi",
          "Thriller"
        ],
        "summary": "Set in the near-future, technology controls nearly all aspects of life. But when Grey, a self-identified technophobe, has his world turned upside down, his only hope for revenge is an experimental computer chip implant called Stem.",
        "description_full": "Set in the near-future, technology controls nearly all aspects of life. But when Grey, a self-identified technophobe, has his world turned upside down, his only hope for revenge is an experimental computer chip implant called Stem.",
        "synopsis": "Set in the near-future, technology controls nearly all aspects of life. But when Grey, a self-identified technophobe, has his world turned upside down, his only hope for revenge is an experimental computer chip implant called Stem.",
        "yt_trailer_code": "1hTLGlgZ4Z8",
        "language": "English",
        "mpa_rating": "R",
        "background_image": "https://yts.am/assets/images/movies/upgrade_2018/background.jpg",
        "background_image_original": "https://yts.am/assets/images/movies/upgrade_2018/background.jpg",
        "small_cover_image": "https://yts.am/assets/images/movies/upgrade_2018/small-cover.jpg",
        "medium_cover_image": "https://yts.am/assets/images/movies/upgrade_2018/medium-cover.jpg",
        "large_cover_image": "https://yts.am/assets/images/movies/upgrade_2018/large-cover.jpg",
        "state": "ok",
        "torrents": [
          {
            "url": "https://yts.am/torrent/download/AE6F803700824BA64BA35FEB9791D62D2DA943BC",
            "hash": "AE6F803700824BA64BA35FEB9791D62D2DA943BC",
            "quality": "720p",
            "seeds": 2729,
            "peers": 4223,
            "size": "856.42 MB",
            "size_bytes": 898021458,
            "date_uploaded": "2018-08-14 11:26:27",
            "date_uploaded_unix": 1534238787
          },
          {
            "url": "https://yts.am/torrent/download/1F08ADFA3B277F9AD8585FCD32035A13DDA0F50B",
            "hash": "1F08ADFA3B277F9AD8585FCD32035A13DDA0F50B",
            "quality": "1080p",
            "seeds": 2789,
            "peers": 4443,
            "size": "1.6 GB",
            "size_bytes": 1717986918,
            "date_uploaded": "2018-08-14 12:56:56",
            "date_uploaded_unix": 1534244216
          }
        ],
        "date_uploaded": "2018-08-14 11:26:27",
        "date_uploaded_unix": 1534238787
      },
      {
        "id": 8595,
        "url": "https://yts.am/movie/the-happiest-millionaire-1967",
        "imdb_code": "tt0061749",
        "title": "The Happiest Millionaire",
        "title_english": "The Happiest Millionaire",
        "title_long": "The Happiest Millionaire (1967)",
        "slug": "the-happiest-millionaire-1967",
        "year": 1967,
        "rating": 6.9,
        "runtime": 141,
        "summary": "A happy and unbelievably lucky young Irish immigrant, John Lawless, lands a job as the butler of an unconventional millionaire, Biddle. His daughter, Cordelia Drexel Biddle, tires of the unusual antics of her father--especially since the nice young men around town all fear him. Wouldn't you fear a father-in-law that keeps alligators for pets and teaches boxing at his daily Bible classes? Cordelia decides to run off to boarding school and promptly finds the man of her dreams. Unfortunately, his family doesn't approve of Biddle's outrageous antics, either. A Disney musical punctuated by snappy songs and an energetic debut by Tommy Steele. This is reportedly one of the last live- action films Walt Disney personally oversaw.",
        "description_full": "A happy and unbelievably lucky young Irish immigrant, John Lawless, lands a job as the butler of an unconventional millionaire, Biddle. His daughter, Cordelia Drexel Biddle, tires of the unusual antics of her father--especially since the nice young men around town all fear him. Wouldn't you fear a father-in-law that keeps alligators for pets and teaches boxing at his daily Bible classes? Cordelia decides to run off to boarding school and promptly finds the man of her dreams. Unfortunately, his family doesn't approve of Biddle's outrageous antics, either. A Disney musical punctuated by snappy songs and an energetic debut by Tommy Steele. This is reportedly one of the last live- action films Walt Disney personally oversaw.",
        "synopsis": "A happy and unbelievably lucky young Irish immigrant, John Lawless, lands a job as the butler of an unconventional millionaire, Biddle. His daughter, Cordelia Drexel Biddle, tires of the unusual antics of her father--especially since the nice young men around town all fear him. Wouldn't you fear a father-in-law that keeps alligators for pets and teaches boxing at his daily Bible classes? Cordelia decides to run off to boarding school and promptly finds the man of her dreams. Unfortunately, his family doesn't approve of Biddle's outrageous antics, either. A Disney musical punctuated by snappy songs and an energetic debut by Tommy Steele. This is reportedly one of the last live- action films Walt Disney personally oversaw.",
        "yt_trailer_code": "",
        "language": "English",
        "mpa_rating": "",
        "background_image": "https://yts.am/assets/images/movies/the_happiest_millionaire_1967/background.jpg",
        "background_image_original": "https://yts.am/assets/images/movies/the_happiest_millionaire_1967/background.jpg",
        "small_cover_image": "https://yts.am/assets/images/movies/the_happiest_millionaire_1967/small-cover.jpg",
        "medium_cover_image": "https://yts.am/assets/images/movies/the_happiest_millionaire_1967/medium-cover.jpg",
        "large_cover_image": "https://yts.am/assets/images/movies/the_happiest_millionaire_1967/large-cover.jpg",
        "state": "ok",
        "torrents": [
          {
            "url": "https://yts.am/torrent/download/CAD95AC90533122D4097EA9DB7D6553D4ACCF590",
            "hash": "CAD95AC90533122D4097EA9DB7D6553D4ACCF590",
            "quality": "720p",
            "seeds": 64,
            "peers": 69,
            "size": "1.38 GB",
            "size_bytes": 1481763717,
            "date_uploaded": "2018-08-14 14:38:17",
            "date_uploaded_unix": 1534250297
          },
          {
            "url": "https://yts.am/torrent/download/9DC3B9BB4774FC85F86E68408C0523FF57F2FC81",
            "hash": "9DC3B9BB4774FC85F86E68408C0523FF57F2FC81",
            "quality": "1080p",
            "seeds": 0,
            "peers": 0,
            "size": "2.65 GB",
            "size_bytes": 2845415834,
            "date_uploaded": "2018-08-14 17:53:07",
            "date_uploaded_unix": 1534261987
          }
        ],
        "date_uploaded": "2018-08-14 14:38:17",
        "date_uploaded_unix": 1534250297
      },
      {
        "id": 8594,
        "url": "https://yts.am/movie/while-she-was-out-2008",
        "imdb_code": "tt0887971",
        "title": "While She Was Out",
        "title_english": "While She Was Out",
        "title_long": "While She Was Out (2008)",
        "slug": "while-she-was-out-2008",
        "year": 2008,
        "rating": 4.8,
        "runtime": 86,
        "summary": "Della Myers is an overwhelmed upper-middle-class housewife who lives in a large house in the suburbs with her twin children and her abusive husband, Kenneth. Kenneth lets Della know that he thinks she gives all her attention to the twins and neglects her house and her appearance. Late on Christmas Eve, Della drives to the local mall to buy gift-wrap. While searching for a parking space in the jam-packed lot, Della notices an old car taking up two spaces. Frustrated and annoyed, she decides to leave a paper message on the windshield of the old car, writing, \"Hey, Jerk. Two parking spaces. How selfish can you be?\" After the mall closes, Della's car is held by the driver of the old car and she is threatened by four punks -- Chuckie, Huey, Vingh, and Tomás. When the security guard of the mall attempts to protect Della, he is shot and killed by Chuckie. Della tries to escape from the criminals in her truck, but the gang chases her. In the chase, she crashes in a nearby forest. What unfolds...",
        "description_full": "Della Myers is an overwhelmed upper-middle-class housewife who lives in a large house in the suburbs with her twin children and her abusive husband, Kenneth. Kenneth lets Della know that he thinks she gives all her attention to the twins and neglects her house and her appearance. Late on Christmas Eve, Della drives to the local mall to buy gift-wrap. While searching for a parking space in the jam-packed lot, Della notices an old car taking up two spaces. Frustrated and annoyed, she decides to leave a paper message on the windshield of the old car, writing, \"Hey, Jerk. Two parking spaces. How selfish can you be?\" After the mall closes, Della's car is held by the driver of the old car and she is threatened by four punks -- Chuckie, Huey, Vingh, and Tomás. When the security guard of the mall attempts to protect Della, he is shot and killed by Chuckie. Della tries to escape from the criminals in her truck, but the gang chases her. In the chase, she crashes in a nearby forest. What unfolds...",
        "synopsis": "Della Myers is an overwhelmed upper-middle-class housewife who lives in a large house in the suburbs with her twin children and her abusive husband, Kenneth. Kenneth lets Della know that he thinks she gives all her attention to the twins and neglects her house and her appearance. Late on Christmas Eve, Della drives to the local mall to buy gift-wrap. While searching for a parking space in the jam-packed lot, Della notices an old car taking up two spaces. Frustrated and annoyed, she decides to leave a paper message on the windshield of the old car, writing, \"Hey, Jerk. Two parking spaces. How selfish can you be?\" After the mall closes, Della's car is held by the driver of the old car and she is threatened by four punks -- Chuckie, Huey, Vingh, and Tomás. When the security guard of the mall attempts to protect Della, he is shot and killed by Chuckie. Della tries to escape from the criminals in her truck, but the gang chases her. In the chase, she crashes in a nearby forest. What unfolds...",
        "yt_trailer_code": "xboYrgpn-S4",
        "language": "English",
        "mpa_rating": "R",
        "background_image": "https://yts.am/assets/images/movies/while_she_was_out_2008/background.jpg",
        "background_image_original": "https://yts.am/assets/images/movies/while_she_was_out_2008/background.jpg",
        "small_cover_image": "https://yts.am/assets/images/movies/while_she_was_out_2008/small-cover.jpg",
        "medium_cover_image": "https://yts.am/assets/images/movies/while_she_was_out_2008/medium-cover.jpg",
        "large_cover_image": "https://yts.am/assets/images/movies/while_she_was_out_2008/large-cover.jpg",
        "state": "ok",
        "torrents": [
          {
            "url": "https://yts.am/torrent/download/50912499BB2A25B5FB485F8533DB45BB8ED8FDAC",
            "hash": "50912499BB2A25B5FB485F8533DB45BB8ED8FDAC",
            "quality": "720p",
            "seeds": 139,
            "peers": 106,
            "size": "714.8 MB",
            "size_bytes": 749522125,
            "date_uploaded": "2018-08-14 10:55:49",
            "date_uploaded_unix": 1534236949
          },
          {
            "url": "https://yts.am/torrent/download/23DFDD311B9712F9237F89324FDEE2736EAE1FDB",
            "hash": "23DFDD311B9712F9237F89324FDEE2736EAE1FDB",
            "quality": "1080p",
            "seeds": 76,
            "peers": 88,
            "size": "1.33 GB",
            "size_bytes": 1428076626,
            "date_uploaded": "2018-08-14 12:49:12",
            "date_uploaded_unix": 1534243752
          }
        ],
        "date_uploaded": "2018-08-14 10:55:49",
        "date_uploaded_unix": 1534236949
      },
      {
        "id": 8593,
        "url": "https://yts.am/movie/return-to-the-36th-chamber-1980",
        "imdb_code": "tt0081494",
        "title": "Return to the 36th Chamber",
        "title_english": "Return to the 36th Chamber",
        "title_long": "Return to the 36th Chamber (1980)",
        "slug": "return-to-the-36th-chamber-1980",
        "year": 1980,
        "rating": 7.1,
        "runtime": 0,
        "summary": "The workers of a dye factory have their pay cut by 20% when the factory owner brings in some Manchu thugs to try and increase production. Desperate to reclaim their full wages, the workers hire an actor to impersonate a priest and kung-fu expert from the temple of Shaolin. The factory owner proves the actor a fraud, and punishes all those involved. The young actor feels he has let the workers down, and promises to atone. He sets out for Shaolin, determined to be accepted as a kung-fu pupil at the elite temple.",
        "description_full": "The workers of a dye factory have their pay cut by 20% when the factory owner brings in some Manchu thugs to try and increase production. Desperate to reclaim their full wages, the workers hire an actor to impersonate a priest and kung-fu expert from the temple of Shaolin. The factory owner proves the actor a fraud, and punishes all those involved. The young actor feels he has let the workers down, and promises to atone. He sets out for Shaolin, determined to be accepted as a kung-fu pupil at the elite temple.",
        "synopsis": "The workers of a dye factory have their pay cut by 20% when the factory owner brings in some Manchu thugs to try and increase production. Desperate to reclaim their full wages, the workers hire an actor to impersonate a priest and kung-fu expert from the temple of Shaolin. The factory owner proves the actor a fraud, and punishes all those involved. The young actor feels he has let the workers down, and promises to atone. He sets out for Shaolin, determined to be accepted as a kung-fu pupil at the elite temple.",
        "yt_trailer_code": "Ek5u5XIRqUg",
        "language": "English",
        "mpa_rating": "",
        "background_image": "https://yts.am/assets/images/movies/return_to_the_36th_chamber_1980/background.jpg",
        "background_image_original": "https://yts.am/assets/images/movies/return_to_the_36th_chamber_1980/background.jpg",
        "small_cover_image": "https://yts.am/assets/images/movies/return_to_the_36th_chamber_1980/small-cover.jpg",
        "medium_cover_image": "https://yts.am/assets/images/movies/return_to_the_36th_chamber_1980/medium-cover.jpg",
        "large_cover_image": "https://yts.am/assets/images/movies/return_to_the_36th_chamber_1980/large-cover.jpg",
        "state": "ok",
        "torrents": [
          {
            "url": "https://yts.am/torrent/download/25606A55A6A92505D1F73E016262ACD53D9E4D9D",
            "hash": "25606A55A6A92505D1F73E016262ACD53D9E4D9D",
            "quality": "720p",
            "seeds": 123,
            "peers": 65,
            "size": "838.53 MB",
            "size_bytes": 879262433,
            "date_uploaded": "2018-08-14 04:30:26",
            "date_uploaded_unix": 1534213826
          },
          {
            "url": "https://yts.am/torrent/download/13809F3D63DBCA7C588761B92BE12C963BBFB5F2",
            "hash": "13809F3D63DBCA7C588761B92BE12C963BBFB5F2",
            "quality": "1080p",
            "seeds": 195,
            "peers": 83,
            "size": "1.6 GB",
            "size_bytes": 1717986918,
            "date_uploaded": "2018-08-14 06:29:38",
            "date_uploaded_unix": 1534220978
          }
        ],
        "date_uploaded": "2018-08-14 04:30:26",
        "date_uploaded_unix": 1534213826
      },
      {
        "id": 8592,
        "url": "https://yts.am/movie/troll-1986",
        "imdb_code": "tt0092115",
        "title": "Troll",
        "title_english": "Troll",
        "title_long": "Troll (1986)",
        "slug": "troll-1986",
        "year": 1986,
        "rating": 4.4,
        "runtime": 82,
        "summary": "The Potter family has just moved to a rented apartment in San Francisco. Harry Potter Sr. and his wife Anne are bringing the packages to the apartment and their son Harry Jr. and their little daughter Wendy Anne stays on the sidewalk. Wendy goes to the laundry room, she meets the wicked troll Torok that uses his magic ring to possess Wendy and to use her form to transform the dwellers and their apartment into other trolls and his kingdom. Harry Jr. feels that something is wrong with his sister and seeks out help with the good witch Eunice St. Clair that lives in the building.",
        "description_full": "The Potter family has just moved to a rented apartment in San Francisco. Harry Potter Sr. and his wife Anne are bringing the packages to the apartment and their son Harry Jr. and their little daughter Wendy Anne stays on the sidewalk. Wendy goes to the laundry room, she meets the wicked troll Torok that uses his magic ring to possess Wendy and to use her form to transform the dwellers and their apartment into other trolls and his kingdom. Harry Jr. feels that something is wrong with his sister and seeks out help with the good witch Eunice St. Clair that lives in the building.",
        "synopsis": "The Potter family has just moved to a rented apartment in San Francisco. Harry Potter Sr. and his wife Anne are bringing the packages to the apartment and their son Harry Jr. and their little daughter Wendy Anne stays on the sidewalk. Wendy goes to the laundry room, she meets the wicked troll Torok that uses his magic ring to possess Wendy and to use her form to transform the dwellers and their apartment into other trolls and his kingdom. Harry Jr. feels that something is wrong with his sister and seeks out help with the good witch Eunice St. Clair that lives in the building.",
        "yt_trailer_code": "v7rg8C8w5ZY",
        "language": "English",
        "mpa_rating": "",
        "background_image": "https://yts.am/assets/images/movies/troll_1986/background.jpg",
        "background_image_original": "https://yts.am/assets/images/movies/troll_1986/background.jpg",
        "small_cover_image": "https://yts.am/assets/images/movies/troll_1986/small-cover.jpg",
        "medium_cover_image": "https://yts.am/assets/images/movies/troll_1986/medium-cover.jpg",
        "large_cover_image": "https://yts.am/assets/images/movies/troll_1986/large-cover.jpg",
        "state": "ok",
        "torrents": [
          {
            "url": "https://yts.am/torrent/download/9B286E1D64EFD21EC1E078739860AA424674377B",
            "hash": "9B286E1D64EFD21EC1E078739860AA424674377B",
            "quality": "720p",
            "seeds": 87,
            "peers": 24,
            "size": "719.84 MB",
            "size_bytes": 754806948,
            "date_uploaded": "2018-08-14 01:25:20",
            "date_uploaded_unix": 1534202720
          },
          {
            "url": "https://yts.am/torrent/download/C394D976FF3351B4426E9F5445DE8E4531FB3CB9",
            "hash": "C394D976FF3351B4426E9F5445DE8E4531FB3CB9",
            "quality": "1080p",
            "seeds": 114,
            "peers": 41,
            "size": "1.34 GB",
            "size_bytes": 1438814044,
            "date_uploaded": "2018-08-14 03:27:50",
            "date_uploaded_unix": 1534210070
          }
        ],
        "date_uploaded": "2018-08-14 01:25:20",
        "date_uploaded_unix": 1534202720
      },
      {
        "id": 8591,
        "url": "https://yts.am/movie/the-times-of-harvey-milk-1984",
        "imdb_code": "tt0088275",
        "title": "The Times of Harvey Milk",
        "title_english": "The Times of Harvey Milk",
        "title_long": "The Times of Harvey Milk (1984)",
        "slug": "the-times-of-harvey-milk-1984",
        "year": 1984,
        "rating": 8.3,
        "runtime": 90,
        "summary": "2 Members of the San Francisco Board of Supervisors Harvey Milk & San Francisco Mayor, 'George Moscone (I)' were assassinated by recently resigned Supervisor Dan White on Monday, November 27th, 1978, approximately 8:45 AM to 9:15 AM. Milk's life leading up to his election, his successful efforts to politically represent San Francisco's gay community, and the city's reaction to the assassinations are documented with extensive news film and personal recollections.",
        "description_full": "2 Members of the San Francisco Board of Supervisors Harvey Milk & San Francisco Mayor, 'George Moscone (I)' were assassinated by recently resigned Supervisor Dan White on Monday, November 27th, 1978, approximately 8:45 AM to 9:15 AM. Milk's life leading up to his election, his successful efforts to politically represent San Francisco's gay community, and the city's reaction to the assassinations are documented with extensive news film and personal recollections.",
        "synopsis": "2 Members of the San Francisco Board of Supervisors Harvey Milk & San Francisco Mayor, 'George Moscone (I)' were assassinated by recently resigned Supervisor Dan White on Monday, November 27th, 1978, approximately 8:45 AM to 9:15 AM. Milk's life leading up to his election, his successful efforts to politically represent San Francisco's gay community, and the city's reaction to the assassinations are documented with extensive news film and personal recollections.",
        "yt_trailer_code": "Jet-Ubwk5l8",
        "language": "English",
        "mpa_rating": "",
        "background_image": "https://yts.am/assets/images/movies/the_times_of_harvey_milk_1984/background.jpg",
        "background_image_original": "https://yts.am/assets/images/movies/the_times_of_harvey_milk_1984/background.jpg",
        "small_cover_image": "https://yts.am/assets/images/movies/the_times_of_harvey_milk_1984/small-cover.jpg",
        "medium_cover_image": "https://yts.am/assets/images/movies/the_times_of_harvey_milk_1984/medium-cover.jpg",
        "large_cover_image": "https://yts.am/assets/images/movies/the_times_of_harvey_milk_1984/large-cover.jpg",
        "state": "ok",
        "torrents": [
          {
            "url": "https://yts.am/torrent/download/173CF75F8EA0F8C95C0D2DC62DB0EB7E3B86D0C2",
            "hash": "173CF75F8EA0F8C95C0D2DC62DB0EB7E3B86D0C2",
            "quality": "720p",
            "seeds": 60,
            "peers": 23,
            "size": "737.05 MB",
            "size_bytes": 772852941,
            "date_uploaded": "2018-08-13 19:05:28",
            "date_uploaded_unix": 1534179928
          },
          {
            "url": "https://yts.am/torrent/download/4524E497B63D5B1EAA28ACF826FC3BF3624F1083",
            "hash": "4524E497B63D5B1EAA28ACF826FC3BF3624F1083",
            "quality": "1080p",
            "seeds": 128,
            "peers": 35,
            "size": "1.4 GB",
            "size_bytes": 1503238554,
            "date_uploaded": "2018-08-13 21:01:59",
            "date_uploaded_unix": 1534186919
          }
        ],
        "date_uploaded": "2018-08-13 19:05:28",
        "date_uploaded_unix": 1534179928
      },
      {
        "id": 8590,
        "url": "https://yts.am/movie/the-messengers-2007",
        "imdb_code": "tt0425430",
        "title": "The Messengers",
        "title_english": "The Messengers",
        "title_long": "The Messengers (2007)",
        "slug": "the-messengers-2007",
        "year": 2007,
        "rating": 5.4,
        "runtime": 90,
        "summary": "It's been six years since the Rollins family just up and left and now the troubled Solomon family has come from Chicago, to rebuild their lives following their sons hospitalization due to their daughter's drunk driving accident. But as they start to settle in something odd and strange begins to occur to their son. Could something supernatural be at work, and did the previous family just leave...or are they still here? Trapped in the only place they've ever known? And what did cause their deaths? Most of all...is this 'killer' still very much alive?",
        "description_full": "It's been six years since the Rollins family just up and left and now the troubled Solomon family has come from Chicago, to rebuild their lives following their sons hospitalization due to their daughter's drunk driving accident. But as they start to settle in something odd and strange begins to occur to their son. Could something supernatural be at work, and did the previous family just leave...or are they still here? Trapped in the only place they've ever known? And what did cause their deaths? Most of all...is this 'killer' still very much alive?",
        "synopsis": "It's been six years since the Rollins family just up and left and now the troubled Solomon family has come from Chicago, to rebuild their lives following their sons hospitalization due to their daughter's drunk driving accident. But as they start to settle in something odd and strange begins to occur to their son. Could something supernatural be at work, and did the previous family just leave...or are they still here? Trapped in the only place they've ever known? And what did cause their deaths? Most of all...is this 'killer' still very much alive?",
        "yt_trailer_code": "22XGp20H-A4",
        "language": "English",
        "mpa_rating": "PG-13",
        "background_image": "https://yts.am/assets/images/movies/the_messengers_2007/background.jpg",
        "background_image_original": "https://yts.am/assets/images/movies/the_messengers_2007/background.jpg",
        "small_cover_image": "https://yts.am/assets/images/movies/the_messengers_2007/small-cover.jpg",
        "medium_cover_image": "https://yts.am/assets/images/movies/the_messengers_2007/medium-cover.jpg",
        "large_cover_image": "https://yts.am/assets/images/movies/the_messengers_2007/large-cover.jpg",
        "state": "ok",
        "torrents": [
          {
            "url": "https://yts.am/torrent/download/9AFFEC9082906B9D5B575A3D2A8699C56C11B3A0",
            "hash": "9AFFEC9082906B9D5B575A3D2A8699C56C11B3A0",
            "quality": "720p",
            "seeds": 254,
            "peers": 201,
            "size": "739.19 MB",
            "size_bytes": 775096893,
            "date_uploaded": "2018-08-14 06:38:22",
            "date_uploaded_unix": 1534221502
          },
          {
            "url": "https://yts.am/torrent/download/FF1E9C0B6CC8774B9E44CCF8BF6118D5F986F9B3",
            "hash": "FF1E9C0B6CC8774B9E44CCF8BF6118D5F986F9B3",
            "quality": "1080p",
            "seeds": 190,
            "peers": 197,
            "size": "1.39 GB",
            "size_bytes": 1492501135,
            "date_uploaded": "2018-08-14 08:18:44",
            "date_uploaded_unix": 1534227524
          }
        ],
        "date_uploaded": "2018-08-14 06:38:22",
        "date_uploaded_unix": 1534221502
      },
      {
        "id": 8589,
        "url": "https://yts.am/movie/plenty-1985",
        "imdb_code": "tt0089816",
        "title": "Plenty",
        "title_english": "Plenty",
        "title_long": "Plenty (1985)",
        "slug": "plenty-1985",
        "year": 1985,
        "rating": 6.1,
        "runtime": 121,
        "summary": "Susan Traherne has been irreparably changed by her wartime experiences as a Resistance fighter. She sets out in the post-war world to make her way to what she wants, no matter who is hurt, or how.",
        "description_full": "Susan Traherne has been irreparably changed by her wartime experiences as a Resistance fighter. She sets out in the post-war world to make her way to what she wants, no matter who is hurt, or how.",
        "synopsis": "Susan Traherne has been irreparably changed by her wartime experiences as a Resistance fighter. She sets out in the post-war world to make her way to what she wants, no matter who is hurt, or how.",
        "yt_trailer_code": "2wW_J798Mws",
        "language": "English",
        "mpa_rating": "",
        "background_image": "https://yts.am/assets/images/movies/plenty_1985/background.jpg",
        "background_image_original": "https://yts.am/assets/images/movies/plenty_1985/background.jpg",
        "small_cover_image": "https://yts.am/assets/images/movies/plenty_1985/small-cover.jpg",
        "medium_cover_image": "https://yts.am/assets/images/movies/plenty_1985/medium-cover.jpg",
        "large_cover_image": "https://yts.am/assets/images/movies/plenty_1985/large-cover.jpg",
        "state": "ok",
        "torrents": [
          {
            "url": "https://yts.am/torrent/download/8E5F06A19BC653C91D19B6BA88D5C24C8AFC6574",
            "hash": "8E5F06A19BC653C91D19B6BA88D5C24C8AFC6574",
            "quality": "720p",
            "seeds": 83,
            "peers": 55,
            "size": "1.07 GB",
            "size_bytes": 1148903752,
            "date_uploaded": "2018-08-14 01:35:06",
            "date_uploaded_unix": 1534203306
          },
          {
            "url": "https://yts.am/torrent/download/6875CB9E9EC38BC2611CD323D3324A703FAEFD8F",
            "hash": "6875CB9E9EC38BC2611CD323D3324A703FAEFD8F",
            "quality": "1080p",
            "seeds": 130,
            "peers": 78,
            "size": "2.02 GB",
            "size_bytes": 2168958484,
            "date_uploaded": "2018-08-14 03:38:10",
            "date_uploaded_unix": 1534210690
          }
        ],
        "date_uploaded": "2018-08-14 01:35:06",
        "date_uploaded_unix": 1534203306
      },
      {
        "id": 8588,
        "url": "https://yts.am/movie/court-2014",
        "imdb_code": "tt3717068",
        "title": "Court",
        "title_english": "Court",
        "title_long": "Court (2014)",
        "slug": "court-2014",
        "year": 2014,
        "rating": 7.7,
        "runtime": 116,
        "summary": "A sewerage worker's dead body is found inside a manhole in Mumbai. An ageing folk singer is tried in court on charges of abetment of suicide. He is accused of performing an inflammatory song which might have incited the worker to commit the act. As the trial unfolds, the personal lives of the lawyers and the judge involved in the case are observed outside the court.",
        "description_full": "A sewerage worker's dead body is found inside a manhole in Mumbai. An ageing folk singer is tried in court on charges of abetment of suicide. He is accused of performing an inflammatory song which might have incited the worker to commit the act. As the trial unfolds, the personal lives of the lawyers and the judge involved in the case are observed outside the court.",
        "synopsis": "A sewerage worker's dead body is found inside a manhole in Mumbai. An ageing folk singer is tried in court on charges of abetment of suicide. He is accused of performing an inflammatory song which might have incited the worker to commit the act. As the trial unfolds, the personal lives of the lawyers and the judge involved in the case are observed outside the court.",
        "yt_trailer_code": "RpyfGqJ0uII",
        "language": "English",
        "mpa_rating": "",
        "background_image": "https://yts.am/assets/images/movies/court_2014/background.jpg",
        "background_image_original": "https://yts.am/assets/images/movies/court_2014/background.jpg",
        "small_cover_image": "https://yts.am/assets/images/movies/court_2014/small-cover.jpg",
        "medium_cover_image": "https://yts.am/assets/images/movies/court_2014/medium-cover.jpg",
        "large_cover_image": "https://yts.am/assets/images/movies/court_2014/large-cover.jpg",
        "state": "ok",
        "torrents": [
          {
            "url": "https://yts.am/torrent/download/789AA14F5EB0AD8C40703AD8D6FF202643866684",
            "hash": "789AA14F5EB0AD8C40703AD8D6FF202643866684",
            "quality": "720p",
            "seeds": 192,
            "peers": 215,
            "size": "985.91 MB",
            "size_bytes": 1033801564,
            "date_uploaded": "2018-08-14 09:05:49",
            "date_uploaded_unix": 1534230349
          },
          {
            "url": "https://yts.am/torrent/download/B44899BE1F2FF0B072A973E2DF519017F5A2D723",
            "hash": "B44899BE1F2FF0B072A973E2DF519017F5A2D723",
            "quality": "1080p",
            "seeds": 100,
            "peers": 182,
            "size": "1.86 GB",
            "size_bytes": 1997159793,
            "date_uploaded": "2018-08-14 10:37:57",
            "date_uploaded_unix": 1534235877
          }
        ],
        "date_uploaded": "2018-08-14 09:05:49",
        "date_uploaded_unix": 1534230349
      },
      {
        "id": 8587,
        "url": "https://yts.am/movie/zama-2017",
        "imdb_code": "tt3409848",
        "title": "Zama",
        "title_english": "Zama",
        "title_long": "Zama (2017)",
        "slug": "zama-2017",
        "year": 2017,
        "rating": 6.8,
        "runtime": 115,
        "genres": [
          "Drama"
        ],
        "summary": "Based on the novel by Antonio Di Benedetto written in 1956, on Don Diego de Zama, a Spanish officer of the seventeenth century settled in Asunción, who awaits his transfer to Buenos Aires.",
        "description_full": "Based on the novel by Antonio Di Benedetto written in 1956, on Don Diego de Zama, a Spanish officer of the seventeenth century settled in Asunción, who awaits his transfer to Buenos Aires.",
        "synopsis": "Based on the novel by Antonio Di Benedetto written in 1956, on Don Diego de Zama, a Spanish officer of the seventeenth century settled in Asunción, who awaits his transfer to Buenos Aires.",
        "yt_trailer_code": "K8dW6YHINAA",
        "language": "English",
        "mpa_rating": "",
        "background_image": "https://yts.am/assets/images/movies/zama_2017/background.jpg",
        "background_image_original": "https://yts.am/assets/images/movies/zama_2017/background.jpg",
        "small_cover_image": "https://yts.am/assets/images/movies/zama_2017/small-cover.jpg",
        "medium_cover_image": "https://yts.am/assets/images/movies/zama_2017/medium-cover.jpg",
        "large_cover_image": "https://yts.am/assets/images/movies/zama_2017/large-cover.jpg",
        "state": "ok",
        "torrents": [
          {
            "url": "https://yts.am/torrent/download/8A359A9242069FCAE129AAB12F7E62805452B00E",
            "hash": "8A359A9242069FCAE129AAB12F7E62805452B00E",
            "quality": "720p",
            "seeds": 137,
            "peers": 60,
            "size": "974.63 MB",
            "size_bytes": 1021973627,
            "date_uploaded": "2018-08-13 19:14:46",
            "date_uploaded_unix": 1534180486
          },
          {
            "url": "https://yts.am/torrent/download/17A5FFE29EC29F652DC74B7A81A8523FF6AFA4E6",
            "hash": "17A5FFE29EC29F652DC74B7A81A8523FF6AFA4E6",
            "quality": "1080p",
            "seeds": 195,
            "peers": 88,
            "size": "1.84 GB",
            "size_bytes": 1975684956,
            "date_uploaded": "2018-08-13 21:13:55",
            "date_uploaded_unix": 1534187635
          }
        ],
        "date_uploaded": "2018-08-13 19:14:46",
        "date_uploaded_unix": 1534180486
      },
      {
        "id": 8586,
        "url": "https://yts.am/movie/joe-1970",
        "imdb_code": "tt0065916",
        "title": "Joe",
        "title_english": "Joe",
        "title_long": "Joe (1970)",
        "slug": "joe-1970",
        "year": 1970,
        "rating": 6.9,
        "runtime": 107,
        "genres": [
          "Drama",
          "Thriller"
        ],
        "summary": "Bill, a wealthy businessman, confronts his junkie daughter's drug-dealing boyfriend; in the ensuing argument, Bill kills him. Panic-stricken, he wanders the streets and eventually stops at a bar. There he runs into a drunken factory worker named Joe, who hates hippies, blacks, and anyone who is \"different\", and would like to kill one himself. The two start talking, and Bill reveals his secret to Joe. Complications ensue.",
        "description_full": "Bill, a wealthy businessman, confronts his junkie daughter's drug-dealing boyfriend; in the ensuing argument, Bill kills him. Panic-stricken, he wanders the streets and eventually stops at a bar. There he runs into a drunken factory worker named Joe, who hates hippies, blacks, and anyone who is \"different\", and would like to kill one himself. The two start talking, and Bill reveals his secret to Joe. Complications ensue.",
        "synopsis": "Bill, a wealthy businessman, confronts his junkie daughter's drug-dealing boyfriend; in the ensuing argument, Bill kills him. Panic-stricken, he wanders the streets and eventually stops at a bar. There he runs into a drunken factory worker named Joe, who hates hippies, blacks, and anyone who is \"different\", and would like to kill one himself. The two start talking, and Bill reveals his secret to Joe. Complications ensue.",
        "yt_trailer_code": "4d7KhGmQbEE",
        "language": "English",
        "mpa_rating": "",
        "background_image": "https://yts.am/assets/images/movies/joe_1970/background.jpg",
        "background_image_original": "https://yts.am/assets/images/movies/joe_1970/background.jpg",
        "small_cover_image": "https://yts.am/assets/images/movies/joe_1970/small-cover.jpg",
        "medium_cover_image": "https://yts.am/assets/images/movies/joe_1970/medium-cover.jpg",
        "large_cover_image": "https://yts.am/assets/images/movies/joe_1970/large-cover.jpg",
        "state": "ok",
        "torrents": [
          {
            "url": "https://yts.am/torrent/download/C4BC21E57ECB567659F9A4F72ADB9F3036F34827",
            "hash": "C4BC21E57ECB567659F9A4F72ADB9F3036F34827",
            "quality": "720p",
            "seeds": 84,
            "peers": 25,
            "size": "883.36 MB",
            "size_bytes": 926270095,
            "date_uploaded": "2018-08-13 22:21:11",
            "date_uploaded_unix": 1534191671
          },
          {
            "url": "https://yts.am/torrent/download/88829CF1FC9E74C01C8572C31F5AC942E995F7E2",
            "hash": "88829CF1FC9E74C01C8572C31F5AC942E995F7E2",
            "quality": "1080p",
            "seeds": 112,
            "peers": 56,
            "size": "1.69 GB",
            "size_bytes": 1814623683,
            "date_uploaded": "2018-08-14 00:30:11",
            "date_uploaded_unix": 1534199411
          }
        ],
        "date_uploaded": "2018-08-13 22:21:11",
        "date_uploaded_unix": 1534191671
      },
      {
        "id": 8585,
        "url": "https://yts.am/movie/the-case-of-the-scorpions-tail-1971",
        "imdb_code": "tt0066924",
        "title": "The Case of the Scorpion's Tail",
        "title_english": "The Case of the Scorpion's Tail",
        "title_long": "The Case of the Scorpion's Tail (1971)",
        "slug": "the-case-of-the-scorpions-tail-1971",
        "year": 1971,
        "rating": 6.8,
        "runtime": 90,
        "genres": [
          "Mystery",
          "Thriller"
        ],
        "summary": "A plane explodes; one passenger is a London businessman who's insured for $1 million. His unfaithful wife is the beneficiary. The insurance agency arranges to pay, but also assigns their top investigator, Peter Lynch, to sniff out irregularities. The widow goes to Greece for the payout; Peter follows her, introducing himself. He becomes her protector and her companion, but the relationship is short lived. She has decided to take the money in cash and plans an immediate trip to Tokyo. Is she guilty of her husband's murder, and if so, who's her accomplice? An Athenian police inspector, an Interpol agent, and a French photojournalist join Lynch in the investigation.",
        "description_full": "A plane explodes; one passenger is a London businessman who's insured for $1 million. His unfaithful wife is the beneficiary. The insurance agency arranges to pay, but also assigns their top investigator, Peter Lynch, to sniff out irregularities. The widow goes to Greece for the payout; Peter follows her, introducing himself. He becomes her protector and her companion, but the relationship is short lived. She has decided to take the money in cash and plans an immediate trip to Tokyo. Is she guilty of her husband's murder, and if so, who's her accomplice? An Athenian police inspector, an Interpol agent, and a French photojournalist join Lynch in the investigation.",
        "synopsis": "A plane explodes; one passenger is a London businessman who's insured for $1 million. His unfaithful wife is the beneficiary. The insurance agency arranges to pay, but also assigns their top investigator, Peter Lynch, to sniff out irregularities. The widow goes to Greece for the payout; Peter follows her, introducing himself. He becomes her protector and her companion, but the relationship is short lived. She has decided to take the money in cash and plans an immediate trip to Tokyo. Is she guilty of her husband's murder, and if so, who's her accomplice? An Athenian police inspector, an Interpol agent, and a French photojournalist join Lynch in the investigation.",
        "yt_trailer_code": "HCzVcU_nSV8",
        "language": "English",
        "mpa_rating": "",
        "background_image": "https://yts.am/assets/images/movies/the_case_of_the_scorpions_tail_1971/background.jpg",
        "background_image_original": "https://yts.am/assets/images/movies/the_case_of_the_scorpions_tail_1971/background.jpg",
        "small_cover_image": "https://yts.am/assets/images/movies/the_case_of_the_scorpions_tail_1971/small-cover.jpg",
        "medium_cover_image": "https://yts.am/assets/images/movies/the_case_of_the_scorpions_tail_1971/medium-cover.jpg",
        "large_cover_image": "https://yts.am/assets/images/movies/the_case_of_the_scorpions_tail_1971/large-cover.jpg",
        "state": "ok",
        "torrents": [
          {
            "url": "https://yts.am/torrent/download/42759F344EDD7AE4F56644836C6127273E9EBA1F",
            "hash": "42759F344EDD7AE4F56644836C6127273E9EBA1F",
            "quality": "720p",
            "seeds": 77,
            "peers": 35,
            "size": "786.16 MB",
            "size_bytes": 824348508,
            "date_uploaded": "2018-08-13 16:24:11",
            "date_uploaded_unix": 1534170251
          },
          {
            "url": "https://yts.am/torrent/download/45F084BF86311B9D08CF24DAF7B9FCB9D63CD748",
            "hash": "45F084BF86311B9D08CF24DAF7B9FCB9D63CD748",
            "quality": "1080p",
            "seeds": 93,
            "peers": 55,
            "size": "1.5 GB",
            "size_bytes": 1610612736,
            "date_uploaded": "2018-08-13 18:12:23",
            "date_uploaded_unix": 1534176743
          }
        ],
        "date_uploaded": "2018-08-13 16:24:11",
        "date_uploaded_unix": 1534170251
      },
      {
        "id": 8584,
        "url": "https://yts.am/movie/little-murders-1971",
        "imdb_code": "tt0067350",
        "title": "Little Murders",
        "title_english": "Little Murders",
        "title_long": "Little Murders (1971)",
        "slug": "little-murders-1971",
        "year": 1971,
        "rating": 7.1,
        "runtime": 108,
        "genres": [
          "Comedy"
        ],
        "summary": "An idealistic girl, Patsy Newquist, saves a young photographer, Alfred Chamberlain, from a gang of hooligans. She falls for him, but he turns out to be a nihilist consumed with apathy. They hook up anyway, and she brings him home to meet her parents. All this happens against the background of random shootings that had just begun in NYC at the time the play the movie is based on was written. Her family had already lost a son, so they accept him. However, when the girl tries to change him and get him to find meaning in life, things go horribly wrong in a cruel twist of fate.",
        "description_full": "An idealistic girl, Patsy Newquist, saves a young photographer, Alfred Chamberlain, from a gang of hooligans. She falls for him, but he turns out to be a nihilist consumed with apathy. They hook up anyway, and she brings him home to meet her parents. All this happens against the background of random shootings that had just begun in NYC at the time the play the movie is based on was written. Her family had already lost a son, so they accept him. However, when the girl tries to change him and get him to find meaning in life, things go horribly wrong in a cruel twist of fate.",
        "synopsis": "An idealistic girl, Patsy Newquist, saves a young photographer, Alfred Chamberlain, from a gang of hooligans. She falls for him, but he turns out to be a nihilist consumed with apathy. They hook up anyway, and she brings him home to meet her parents. All this happens against the background of random shootings that had just begun in NYC at the time the play the movie is based on was written. Her family had already lost a son, so they accept him. However, when the girl tries to change him and get him to find meaning in life, things go horribly wrong in a cruel twist of fate.",
        "yt_trailer_code": "8Tm7XalL8bc",
        "language": "English",
        "mpa_rating": "",
        "background_image": "https://yts.am/assets/images/movies/little_murders_1971/background.jpg",
        "background_image_original": "https://yts.am/assets/images/movies/little_murders_1971/background.jpg",
        "small_cover_image": "https://yts.am/assets/images/movies/little_murders_1971/small-cover.jpg",
        "medium_cover_image": "https://yts.am/assets/images/movies/little_murders_1971/medium-cover.jpg",
        "large_cover_image": "https://yts.am/assets/images/movies/little_murders_1971/large-cover.jpg",
        "state": "ok",
        "torrents": [
          {
            "url": "https://yts.am/torrent/download/AAD7144844880D1DEBB464FFC397602C8EC6D220",
            "hash": "AAD7144844880D1DEBB464FFC397602C8EC6D220",
            "quality": "720p",
            "seeds": 52,
            "peers": 18,
            "size": "889.28 MB",
            "size_bytes": 932477665,
            "date_uploaded": "2018-08-13 13:04:55",
            "date_uploaded_unix": 1534158295
          },
          {
            "url": "https://yts.am/torrent/download/00ACE101782CFB28AFC73C05DCA3979A2CC8D72D",
            "hash": "00ACE101782CFB28AFC73C05DCA3979A2CC8D72D",
            "quality": "1080p",
            "seeds": 105,
            "peers": 40,
            "size": "1.7 GB",
            "size_bytes": 1825361101,
            "date_uploaded": "2018-08-13 15:26:59",
            "date_uploaded_unix": 1534166819
          }
        ],
        "date_uploaded": "2018-08-13 13:04:55",
        "date_uploaded_unix": 1534158295
      },
      {
        "id": 8583,
        "url": "https://yts.am/movie/the-effect-of-gamma-rays-on-man-in-the-moon-marigolds-1972",
        "imdb_code": "tt0068528",
        "title": "The Effect of Gamma Rays on Man-in-the-Moon Marigolds",
        "title_english": "The Effect of Gamma Rays on Man-in-the-Moon Marigolds",
        "title_long": "The Effect of Gamma Rays on Man-in-the-Moon Marigolds (1972)",
        "slug": "the-effect-of-gamma-rays-on-man-in-the-moon-marigolds-1972",
        "year": 1972,
        "rating": 7.6,
        "runtime": 100,
        "genres": [
          "Drama"
        ],
        "summary": "From the Pullizer Prize winning play by Paul Zindel, this is the story of Beatrice Hunsdorfer and her daughters, Ruth and Matilda. A middle-aged widowed eccentric, Beatrice is looking for her life in the classified ads while all about her is the rubble of an unkempt house. All she needs is the right opportunity, she says puffing on a cigarette. Poorly equipped to survive the vagaries of modern life, she has nonetheless always managed to muddle through. Ruth, epileptic and making her way through the rebellious phase of adolescence, seems doomed to make the same mistakes as her mother. Quiet Matilda, on the other hand, seeks refuge in her animals and her schoolwork. \"Jesus, don't you hate the world, Matilda?\" Beatrice asks her youngest daughter. The title of the film is also the subject of Matilda's science project at school and serves as a metaphor for the way life affects each of us differently -- how some are able to find opportunity in adversity and thrive and how some succumb when ...",
        "description_full": "From the Pullizer Prize winning play by Paul Zindel, this is the story of Beatrice Hunsdorfer and her daughters, Ruth and Matilda. A middle-aged widowed eccentric, Beatrice is looking for her life in the classified ads while all about her is the rubble of an unkempt house. All she needs is the right opportunity, she says puffing on a cigarette. Poorly equipped to survive the vagaries of modern life, she has nonetheless always managed to muddle through. Ruth, epileptic and making her way through the rebellious phase of adolescence, seems doomed to make the same mistakes as her mother. Quiet Matilda, on the other hand, seeks refuge in her animals and her schoolwork. \"Jesus, don't you hate the world, Matilda?\" Beatrice asks her youngest daughter. The title of the film is also the subject of Matilda's science project at school and serves as a metaphor for the way life affects each of us differently -- how some are able to find opportunity in adversity and thrive and how some succumb when ...",
        "synopsis": "From the Pullizer Prize winning play by Paul Zindel, this is the story of Beatrice Hunsdorfer and her daughters, Ruth and Matilda. A middle-aged widowed eccentric, Beatrice is looking for her life in the classified ads while all about her is the rubble of an unkempt house. All she needs is the right opportunity, she says puffing on a cigarette. Poorly equipped to survive the vagaries of modern life, she has nonetheless always managed to muddle through. Ruth, epileptic and making her way through the rebellious phase of adolescence, seems doomed to make the same mistakes as her mother. Quiet Matilda, on the other hand, seeks refuge in her animals and her schoolwork. \"Jesus, don't you hate the world, Matilda?\" Beatrice asks her youngest daughter. The title of the film is also the subject of Matilda's science project at school and serves as a metaphor for the way life affects each of us differently -- how some are able to find opportunity in adversity and thrive and how some succumb when ...",
        "yt_trailer_code": "",
        "language": "English",
        "mpa_rating": "",
        "background_image": "https://yts.am/assets/images/movies/the_effect_of_gamma_rays_on_man_in_the_moon_marigolds_1972/background.jpg",
        "background_image_original": "https://yts.am/assets/images/movies/the_effect_of_gamma_rays_on_man_in_the_moon_marigolds_1972/background.jpg",
        "small_cover_image": "https://yts.am/assets/images/movies/the_effect_of_gamma_rays_on_man_in_the_moon_marigolds_1972/small-cover.jpg",
        "medium_cover_image": "https://yts.am/assets/images/movies/the_effect_of_gamma_rays_on_man_in_the_moon_marigolds_1972/medium-cover.jpg",
        "large_cover_image": "https://yts.am/assets/images/movies/the_effect_of_gamma_rays_on_man_in_the_moon_marigolds_1972/large-cover.jpg",
        "state": "ok",
        "torrents": [
          {
            "url": "https://yts.am/torrent/download/44379E45036443A451053445CD7350FA26DC66B2",
            "hash": "44379E45036443A451053445CD7350FA26DC66B2",
            "quality": "720p",
            "seeds": 64,
            "peers": 24,
            "size": "819.56 MB",
            "size_bytes": 859370947,
            "date_uploaded": "2018-08-13 22:11:54",
            "date_uploaded_unix": 1534191114
          },
          {
            "url": "https://yts.am/torrent/download/A826A9941196C7E0C1BFC93FD775048728717846",
            "hash": "A826A9941196C7E0C1BFC93FD775048728717846",
            "quality": "1080p",
            "seeds": 112,
            "peers": 47,
            "size": "1.57 GB",
            "size_bytes": 1685774664,
            "date_uploaded": "2018-08-14 00:20:17",
            "date_uploaded_unix": 1534198817
          }
        ],
        "date_uploaded": "2018-08-13 22:11:54",
        "date_uploaded_unix": 1534191114
      },
      {
        "id": 8582,
        "url": "https://yts.am/movie/the-go-between-1971",
        "imdb_code": "tt0067144",
        "title": "The Go-Between",
        "title_english": "The Go-Between",
        "title_long": "The Go-Between (1971)",
        "slug": "the-go-between-1971",
        "year": 1971,
        "rating": 7.4,
        "runtime": 116,
        "genres": [
          "Drama",
          "Romance"
        ],
        "summary": "Summer 1900: Queen Victoria's last and the summer Leo turns 13. He's the guest of Marcus, a wealthy classmate, at a grand home in rural Norfolk. Leo is befriended by Marian, Marcus's twenty-something sister, a beauty about to be engaged to Hugh, a viscount and good fellow. Marian buys Leo a forest-green suit, takes him on walks, and asks him to carry messages to and from their neighbor, Ted Burgess, a bit of a rake. Leo is soon dissembling, realizes he's betraying Hugh, but continues as the go-between nonetheless, asking adults naive questions about the attractions of men and women. Can an affair between neighbors stay secret for long? And how does innocence end?",
        "description_full": "Summer 1900: Queen Victoria's last and the summer Leo turns 13. He's the guest of Marcus, a wealthy classmate, at a grand home in rural Norfolk. Leo is befriended by Marian, Marcus's twenty-something sister, a beauty about to be engaged to Hugh, a viscount and good fellow. Marian buys Leo a forest-green suit, takes him on walks, and asks him to carry messages to and from their neighbor, Ted Burgess, a bit of a rake. Leo is soon dissembling, realizes he's betraying Hugh, but continues as the go-between nonetheless, asking adults naive questions about the attractions of men and women. Can an affair between neighbors stay secret for long? And how does innocence end?",
        "synopsis": "Summer 1900: Queen Victoria's last and the summer Leo turns 13. He's the guest of Marcus, a wealthy classmate, at a grand home in rural Norfolk. Leo is befriended by Marian, Marcus's twenty-something sister, a beauty about to be engaged to Hugh, a viscount and good fellow. Marian buys Leo a forest-green suit, takes him on walks, and asks him to carry messages to and from their neighbor, Ted Burgess, a bit of a rake. Leo is soon dissembling, realizes he's betraying Hugh, but continues as the go-between nonetheless, asking adults naive questions about the attractions of men and women. Can an affair between neighbors stay secret for long? And how does innocence end?",
        "yt_trailer_code": "VH4KWS4CYkA",
        "language": "English",
        "mpa_rating": "",
        "background_image": "https://yts.am/assets/images/movies/the_go_between_1971/background.jpg",
        "background_image_original": "https://yts.am/assets/images/movies/the_go_between_1971/background.jpg",
        "small_cover_image": "https://yts.am/assets/images/movies/the_go_between_1971/small-cover.jpg",
        "medium_cover_image": "https://yts.am/assets/images/movies/the_go_between_1971/medium-cover.jpg",
        "large_cover_image": "https://yts.am/assets/images/movies/the_go_between_1971/large-cover.jpg",
        "state": "ok",
        "torrents": [
          {
            "url": "https://yts.am/torrent/download/2670AFE45F1C9035F3810AF48829E2D9592F37FC",
            "hash": "2670AFE45F1C9035F3810AF48829E2D9592F37FC",
            "quality": "720p",
            "seeds": 83,
            "peers": 29,
            "size": "945.31 MB",
            "size_bytes": 991229379,
            "date_uploaded": "2018-08-13 07:25:48",
            "date_uploaded_unix": 1534137948
          },
          {
            "url": "https://yts.am/torrent/download/02B160F0EFA64C06EFE4829133EB0F872A2B4201",
            "hash": "02B160F0EFA64C06EFE4829133EB0F872A2B4201",
            "quality": "1080p",
            "seeds": 138,
            "peers": 41,
            "size": "1.82 GB",
            "size_bytes": 1954210120,
            "date_uploaded": "2018-08-13 09:54:24",
            "date_uploaded_unix": 1534146864
          }
        ],
        "date_uploaded": "2018-08-13 07:25:48",
        "date_uploaded_unix": 1534137948
      },
      {
        "id": 8581,
        "url": "https://yts.am/movie/patient-zero-2018",
        "imdb_code": "tt3458254",
        "title": "Patient Zero",
        "title_english": "Patient Zero",
        "title_long": "Patient Zero (2018)",
        "slug": "patient-zero-2018",
        "year": 2018,
        "rating": 0,
        "runtime": 0,
        "genres": [
          "Action",
          "Drama",
          "Horror"
        ],
        "summary": "In the pandemic thriller, Patient Zero, humanity is battling intelligent, adrenaline-fueled creatures born from a viral super-strain. After being bitten, human survivor Morgan (Matt Smith) realizes he is asymptomatic and can communicate with the infected, leading the last survivors on a hunt for Patient Zero and a cure.",
        "description_full": "In the pandemic thriller, Patient Zero, humanity is battling intelligent, adrenaline-fueled creatures born from a viral super-strain. After being bitten, human survivor Morgan (Matt Smith) realizes he is asymptomatic and can communicate with the infected, leading the last survivors on a hunt for Patient Zero and a cure.",
        "synopsis": "In the pandemic thriller, Patient Zero, humanity is battling intelligent, adrenaline-fueled creatures born from a viral super-strain. After being bitten, human survivor Morgan (Matt Smith) realizes he is asymptomatic and can communicate with the infected, leading the last survivors on a hunt for Patient Zero and a cure.",
        "yt_trailer_code": "W9uddyaqAPE",
        "language": "English",
        "mpa_rating": "R",
        "background_image": "https://yts.am/assets/images/movies/patient_zero_2018/background.jpg",
        "background_image_original": "https://yts.am/assets/images/movies/patient_zero_2018/background.jpg",
        "small_cover_image": "https://yts.am/assets/images/movies/patient_zero_2018/small-cover.jpg",
        "medium_cover_image": "https://yts.am/assets/images/movies/patient_zero_2018/medium-cover.jpg",
        "large_cover_image": "https://yts.am/assets/images/movies/patient_zero_2018/large-cover.jpg",
        "state": "ok",
        "torrents": [
          {
            "url": "https://yts.am/torrent/download/89B82726991C552939F85580A5075276415540EA",
            "hash": "89B82726991C552939F85580A5075276415540EA",
            "quality": "720p",
            "seeds": 1664,
            "peers": 765,
            "size": "733.64 MB",
            "size_bytes": 769277297,
            "date_uploaded": "2018-08-13 01:07:42",
            "date_uploaded_unix": 1534115262
          },
          {
            "url": "https://yts.am/torrent/download/023FBBCDEEBC5CEB926A0BA33E8C0C838D4C466E",
            "hash": "023FBBCDEEBC5CEB926A0BA33E8C0C838D4C466E",
            "quality": "1080p",
            "seeds": 1768,
            "peers": 1111,
            "size": "1.38 GB",
            "size_bytes": 1481763717,
            "date_uploaded": "2018-08-13 02:28:31",
            "date_uploaded_unix": 1534120111
          }
        ],
        "date_uploaded": "2018-08-13 01:07:42",
        "date_uploaded_unix": 1534115262
      },
      {
        "id": 8580,
        "url": "https://yts.am/movie/ben-1972",
        "imdb_code": "tt0068264",
        "title": "Ben",
        "title_english": "Ben",
        "title_long": "Ben (1972)",
        "slug": "ben-1972",
        "year": 1972,
        "rating": 5.3,
        "runtime": 94,
        "genres": [
          "Horror",
          "Thriller"
        ],
        "summary": "A lonely boy named Danny Garrison befriends Ben, the rat leader of the swarm of rats trained by Willard Stiles. Ben becomes the boy's best friend, protecting him from bullying and keeping his spirits up in the face of a heart condition. However, things gradually take a downward turn as Ben's swarm becomes violent, resulting in several deaths.",
        "description_full": "A lonely boy named Danny Garrison befriends Ben, the rat leader of the swarm of rats trained by Willard Stiles. Ben becomes the boy's best friend, protecting him from bullying and keeping his spirits up in the face of a heart condition. However, things gradually take a downward turn as Ben's swarm becomes violent, resulting in several deaths.",
        "synopsis": "A lonely boy named Danny Garrison befriends Ben, the rat leader of the swarm of rats trained by Willard Stiles. Ben becomes the boy's best friend, protecting him from bullying and keeping his spirits up in the face of a heart condition. However, things gradually take a downward turn as Ben's swarm becomes violent, resulting in several deaths.",
        "yt_trailer_code": "jm0d8CPHXzk",
        "language": "English",
        "mpa_rating": "",
        "background_image": "https://yts.am/assets/images/movies/ben_1972/background.jpg",
        "background_image_original": "https://yts.am/assets/images/movies/ben_1972/background.jpg",
        "small_cover_image": "https://yts.am/assets/images/movies/ben_1972/small-cover.jpg",
        "medium_cover_image": "https://yts.am/assets/images/movies/ben_1972/medium-cover.jpg",
        "large_cover_image": "https://yts.am/assets/images/movies/ben_1972/large-cover.jpg",
        "state": "ok",
        "torrents": [
          {
            "url": "https://yts.am/torrent/download/3E32F5EBD3564C215FCFFF144CAECD8566CD2B0B",
            "hash": "3E32F5EBD3564C215FCFFF144CAECD8566CD2B0B",
            "quality": "720p",
            "seeds": 133,
            "peers": 76,
            "size": "777.11 MB",
            "size_bytes": 814858895,
            "date_uploaded": "2018-08-14 07:40:27",
            "date_uploaded_unix": 1534225227
          },
          {
            "url": "https://yts.am/torrent/download/9D390E069ECA69D4C1A62BC0D98FDDB580BF9D73",
            "hash": "9D390E069ECA69D4C1A62BC0D98FDDB580BF9D73",
            "quality": "1080p",
            "seeds": 103,
            "peers": 124,
            "size": "1.48 GB",
            "size_bytes": 1589137900,
            "date_uploaded": "2018-08-14 09:55:54",
            "date_uploaded_unix": 1534233354
          }
        ],
        "date_uploaded": "2018-08-14 07:40:27",
        "date_uploaded_unix": 1534225227
      },
      {
        "id": 8579,
        "url": "https://yts.am/movie/vampire-cleanup-department-2017",
        "imdb_code": "tt6270524",
        "title": "Vampire Cleanup Department",
        "title_english": "Vampire Cleanup Department",
        "title_long": "Vampire Cleanup Department (2017)",
        "slug": "vampire-cleanup-department-2017",
        "year": 2017,
        "rating": 6.3,
        "runtime": 93,
        "genres": [
          "Action",
          "Comedy",
          "Horror"
        ],
        "summary": "In contemporary Hong Kong, typical young generation Tim Cheung joins the Vampire Cleanup Department team which is a special and secret task force for dealing Chinese vampire Goeng Si. During the operation he is instructed by his uncle Chau of the team senior officer, and finally he saves a female Goeng Si, Summer from her master evil lord Goeng Si who buried alive her in the feudalistic era.",
        "description_full": "In contemporary Hong Kong, typical young generation Tim Cheung joins the Vampire Cleanup Department team which is a special and secret task force for dealing Chinese vampire Goeng Si. During the operation he is instructed by his uncle Chau of the team senior officer, and finally he saves a female Goeng Si, Summer from her master evil lord Goeng Si who buried alive her in the feudalistic era.",
        "synopsis": "In contemporary Hong Kong, typical young generation Tim Cheung joins the Vampire Cleanup Department team which is a special and secret task force for dealing Chinese vampire Goeng Si. During the operation he is instructed by his uncle Chau of the team senior officer, and finally he saves a female Goeng Si, Summer from her master evil lord Goeng Si who buried alive her in the feudalistic era.",
        "yt_trailer_code": "dUELA8MILtM",
        "language": "English",
        "mpa_rating": "",
        "background_image": "https://yts.am/assets/images/movies/vampire_cleanup_department_2017/background.jpg",
        "background_image_original": "https://yts.am/assets/images/movies/vampire_cleanup_department_2017/background.jpg",
        "small_cover_image": "https://yts.am/assets/images/movies/vampire_cleanup_department_2017/small-cover.jpg",
        "medium_cover_image": "https://yts.am/assets/images/movies/vampire_cleanup_department_2017/medium-cover.jpg",
        "large_cover_image": "https://yts.am/assets/images/movies/vampire_cleanup_department_2017/large-cover.jpg",
        "state": "ok",
        "torrents": [
          {
            "url": "https://yts.am/torrent/download/3EDBBED32BD8D0A026E325C09BE9A521AC3AD167",
            "hash": "3EDBBED32BD8D0A026E325C09BE9A521AC3AD167",
            "quality": "720p",
            "seeds": 616,
            "peers": 306,
            "size": "809.14 MB",
            "size_bytes": 848444785,
            "date_uploaded": "2018-08-13 09:58:45",
            "date_uploaded_unix": 1534147125
          },
          {
            "url": "https://yts.am/torrent/download/5801AD5060610A74EC5919072D5AD6F47E35F14F",
            "hash": "5801AD5060610A74EC5919072D5AD6F47E35F14F",
            "quality": "1080p",
            "seeds": 433,
            "peers": 178,
            "size": "1.51 GB",
            "size_bytes": 1621350154,
            "date_uploaded": "2018-08-13 11:55:28",
            "date_uploaded_unix": 1534154128
          }
        ],
        "date_uploaded": "2018-08-13 09:58:45",
        "date_uploaded_unix": 1534147125
      },
      {
        "id": 8578,
        "url": "https://yts.am/movie/on-body-and-soul-2017",
        "imdb_code": "tt5607714",
        "title": "On Body and Soul",
        "title_english": "On Body and Soul",
        "title_long": "On Body and Soul (2017)",
        "slug": "on-body-and-soul-2017",
        "year": 2017,
        "rating": 7.6,
        "runtime": 116,
        "genres": [
          "Drama",
          "Fantasy",
          "Romance"
        ],
        "summary": "On the outskirts of Budapest, the ageing recluse, Endre, is the reserved and saturnine manager of a small abattoir, who is used to hiding his disabled left arm along with his emotions behind a busy schedule. And then, unexpectedly, the loner's eye is caught by a shy and graceful newcomer in the office; the young Mária, the plant's cryptic and glacially beautiful quality-control inspector. Strange as it may seem, the slaughterhouse will provide the unorthodox background for a timid affair between the tender outcasts, who, even though they seem to be polar opposites, a small theft within the company's walls will prove that those two definitely share an eerie and almost spiritual bond. However, are the two dreamers, Endre and Mária, ready to embrace the catharsis of love on both body and soul?",
        "description_full": "On the outskirts of Budapest, the ageing recluse, Endre, is the reserved and saturnine manager of a small abattoir, who is used to hiding his disabled left arm along with his emotions behind a busy schedule. And then, unexpectedly, the loner's eye is caught by a shy and graceful newcomer in the office; the young Mária, the plant's cryptic and glacially beautiful quality-control inspector. Strange as it may seem, the slaughterhouse will provide the unorthodox background for a timid affair between the tender outcasts, who, even though they seem to be polar opposites, a small theft within the company's walls will prove that those two definitely share an eerie and almost spiritual bond. However, are the two dreamers, Endre and Mária, ready to embrace the catharsis of love on both body and soul?",
        "synopsis": "On the outskirts of Budapest, the ageing recluse, Endre, is the reserved and saturnine manager of a small abattoir, who is used to hiding his disabled left arm along with his emotions behind a busy schedule. And then, unexpectedly, the loner's eye is caught by a shy and graceful newcomer in the office; the young Mária, the plant's cryptic and glacially beautiful quality-control inspector. Strange as it may seem, the slaughterhouse will provide the unorthodox background for a timid affair between the tender outcasts, who, even though they seem to be polar opposites, a small theft within the company's walls will prove that those two definitely share an eerie and almost spiritual bond. However, are the two dreamers, Endre and Mária, ready to embrace the catharsis of love on both body and soul?",
        "yt_trailer_code": "jK5tIkuTKbA",
        "language": "English",
        "mpa_rating": "",
        "background_image": "https://yts.am/assets/images/movies/on_body_and_soul_2017/background.jpg",
        "background_image_original": "https://yts.am/assets/images/movies/on_body_and_soul_2017/background.jpg",
        "small_cover_image": "https://yts.am/assets/images/movies/on_body_and_soul_2017/small-cover.jpg",
        "medium_cover_image": "https://yts.am/assets/images/movies/on_body_and_soul_2017/medium-cover.jpg",
        "large_cover_image": "https://yts.am/assets/images/movies/on_body_and_soul_2017/large-cover.jpg",
        "state": "ok",
        "torrents": [
          {
            "url": "https://yts.am/torrent/download/4D09996254546F3ECDC03185BCA65E6314C2F850",
            "hash": "4D09996254546F3ECDC03185BCA65E6314C2F850",
            "quality": "720p",
            "seeds": 527,
            "peers": 309,
            "size": "997.8 MB",
            "size_bytes": 1046269133,
            "date_uploaded": "2018-08-13 06:54:52",
            "date_uploaded_unix": 1534136092
          },
          {
            "url": "https://yts.am/torrent/download/D6D1BC7880D7E2598B2B1FEC1492443B3181B495",
            "hash": "D6D1BC7880D7E2598B2B1FEC1492443B3181B495",
            "quality": "1080p",
            "seeds": 464,
            "peers": 230,
            "size": "1.86 GB",
            "size_bytes": 1997159793,
            "date_uploaded": "2018-08-13 08:57:30",
            "date_uploaded_unix": 1534143450
          }
        ],
        "date_uploaded": "2018-08-13 06:54:52",
        "date_uploaded_unix": 1534136092
      },
      {
        "id": 8577,
        "url": "https://yts.am/movie/the-campus-2018",
        "imdb_code": "tt6772946",
        "title": "The Campus",
        "title_english": "The Campus",
        "title_long": "The Campus (2018)",
        "slug": "the-campus-2018",
        "year": 2018,
        "rating": 4.7,
        "runtime": 84,
        "genres": [
          "Horror"
        ],
        "summary": "Robert Wainwright dies after breaking his deal with the Devil, passing that debt onto his estranged daughter Morgan. She soon finds herself in a never-ending cycle of terror as she is brutally murdered then resurrected over and over again, each time losing a piece of her soul. Now she must discover why this is happening and break the deadly cycle in order to escape.",
        "description_full": "Robert Wainwright dies after breaking his deal with the Devil, passing that debt onto his estranged daughter Morgan. She soon finds herself in a never-ending cycle of terror as she is brutally murdered then resurrected over and over again, each time losing a piece of her soul. Now she must discover why this is happening and break the deadly cycle in order to escape.",
        "synopsis": "Robert Wainwright dies after breaking his deal with the Devil, passing that debt onto his estranged daughter Morgan. She soon finds herself in a never-ending cycle of terror as she is brutally murdered then resurrected over and over again, each time losing a piece of her soul. Now she must discover why this is happening and break the deadly cycle in order to escape.",
        "yt_trailer_code": "zkOa65niU7M",
        "language": "English",
        "mpa_rating": "",
        "background_image": "https://yts.am/assets/images/movies/the_campus_2018/background.jpg",
        "background_image_original": "https://yts.am/assets/images/movies/the_campus_2018/background.jpg",
        "small_cover_image": "https://yts.am/assets/images/movies/the_campus_2018/small-cover.jpg",
        "medium_cover_image": "https://yts.am/assets/images/movies/the_campus_2018/medium-cover.jpg",
        "large_cover_image": "https://yts.am/assets/images/movies/the_campus_2018/large-cover.jpg",
        "state": "ok",
        "torrents": [
          {
            "url": "https://yts.am/torrent/download/2FE972E7EE0B28FCEB75601322E0248E584FE666",
            "hash": "2FE972E7EE0B28FCEB75601322E0248E584FE666",
            "quality": "720p",
            "seeds": 419,
            "peers": 160,
            "size": "727.51 MB",
            "size_bytes": 762849526,
            "date_uploaded": "2018-08-13 04:30:42",
            "date_uploaded_unix": 1534127442
          },
          {
            "url": "https://yts.am/torrent/download/D0ECB20AF2702F34E45A4F1EE9275B878A6BA0CA",
            "hash": "D0ECB20AF2702F34E45A4F1EE9275B878A6BA0CA",
            "quality": "1080p",
            "seeds": 291,
            "peers": 126,
            "size": "1.36 GB",
            "size_bytes": 1460288881,
            "date_uploaded": "2018-08-13 05:50:53",
            "date_uploaded_unix": 1534132253
          }
        ],
        "date_uploaded": "2018-08-13 04:30:42",
        "date_uploaded_unix": 1534127442
      }
    ]
  },
  "@meta": {
    "server_time": 1534277766,
    "server_timezone": "CET",
    "api_version": 2,
    "execution_time": "0 ms"
  }
}